Mycale grandis Substrate Association Analysis
…
Show code

# Check total counts for each sponge species across all sites
sponge_totals <- full_survey %>%
  group_by(sponge) %>%
  summarise(total_count = sum(quan), .groups = 'drop') %>%
  arrange(desc(total_count))

# View all sponges and their counts
print(sponge_totals, n = 30) %>%
  details(summary = "Show tibble") # hides tibble 

 Show tibble 

# A tibble: 21 × 2
   sponge total_count
   <chr>        <dbl>
 1 mg            1808
 2 mclat          152
 3 echsp1          78
 4 subsp2          50
 5 cbur            29
 6 ssol            20
 7 ipro            19
 8 gfib            15
 9 hcae             9
10 psesp1           9
# ℹ 11 more rows
…
